<svg width="32" height="22" viewBox="0 0 32 22" fill="none" xmlns="http://www.w3.org/2000/svg">
<g clip-path="url(#clip0_3247_54561)">
<path d="M32 0.020752H0V21.3543H32V0.020752Z" fill="#D80027"/>
<path d="M32 0.020752H0V7.13169H32V0.020752Z" fill="black"/>
<path d="M32 14.2427H0V21.3536H32V14.2427Z" fill="#FFDA44"/>
</g>
<defs>
<clipPath id="clip0_3247_54561">
<rect width="32" height="21.375" fill="white"/>
</clipPath>
</defs>
</svg>
