<svg width="12" height="13" viewBox="0 0 12 13" fill="none" xmlns="http://www.w3.org/2000/svg">
<g clip-path="url(#clip0_3303_55253)">
<path d="M6.375 3.125V5.85406C6.4875 5.9195 6.5805 6.0125 6.64594 6.125H8.625C8.83209 6.125 9 6.29291 9 6.5C9 6.70709 8.83209 6.875 8.625 6.875H6.64594C6.516 7.09822 6.27684 7.25 6 7.25C5.58581 7.25 5.25 6.91419 5.25 6.5C5.25 6.22306 5.40178 5.98391 5.625 5.85406V3.125C5.625 2.91791 5.79291 2.75 6 2.75C6.20709 2.75 6.375 2.91791 6.375 3.125ZM6 0.5C4.04728 0.5 2.24447 1.44116 1.125 3.00134V1.625C1.125 1.41791 0.957094 1.25 0.75 1.25C0.542906 1.25 0.375 1.41791 0.375 1.625V3.875C0.375 4.08209 0.542906 4.25 0.75 4.25H3C3.20709 4.25 3.375 4.08209 3.375 3.875C3.375 3.66791 3.20709 3.5 3 3.5H1.69331C2.66963 2.09891 4.26656 1.25 6 1.25C8.89491 1.25 11.25 3.60509 11.25 6.5C11.25 9.39491 8.89491 11.75 6 11.75C3.10509 11.75 0.75 9.39491 0.75 6.5C0.75 6.29291 0.582094 6.125 0.375 6.125C0.167906 6.125 0 6.29291 0 6.5C0 9.80834 2.69166 12.5 6 12.5C9.30834 12.5 12 9.80834 12 6.5C12 3.19166 9.30834 0.5 6 0.5Z" fill="#F88F01"/>
</g>
<defs>
<clipPath id="clip0_3303_55253">
<rect width="12" height="12" fill="white" transform="translate(0 0.5)"/>
</clipPath>
</defs>
</svg>
