<svg width="49" height="48" viewBox="0 0 49 48" fill="none" xmlns="http://www.w3.org/2000/svg">
<circle cx="24.5" cy="24" r="24" fill="#FFC107" fill-opacity="0.12"/>
<g clip-path="url(#clip0_23_8200)">
<path d="M30.125 13.4062C28.8227 13.4062 27.6287 13.8189 26.5762 14.6329C25.5673 15.4132 24.8955 16.4071 24.5 17.1298C24.1045 16.407 23.4327 15.4132 22.4238 14.6329C21.3713 13.8189 20.1773 13.4062 18.875 13.4062C15.2407 13.4062 12.5 16.3789 12.5 20.321C12.5 24.5798 15.9192 27.4935 21.0954 31.9046C21.9744 32.6537 22.9707 33.5028 24.0063 34.4084C24.1428 34.5279 24.3181 34.5938 24.5 34.5938C24.6819 34.5938 24.8572 34.5279 24.9937 34.4085C26.0293 33.5027 27.0256 32.6537 27.9051 31.9042C33.0808 27.4935 36.5 24.5798 36.5 20.321C36.5 16.3789 33.7593 13.4062 30.125 13.4062Z" fill="#F88F01"/>
</g>
<defs>
<clipPath id="clip0_23_8200">
<rect width="24" height="24" fill="white" transform="translate(12.5 12)"/>
</clipPath>
</defs>
</svg>
