<svg width="61" height="60" viewBox="0 0 61 60" fill="none" xmlns="http://www.w3.org/2000/svg">
<g clip-path="url(#clip0_2821_29315)">
<path d="M30.5 60C47.0685 60 60.5 46.5685 60.5 30C60.5 13.4315 47.0685 0 30.5 0C13.9315 0 0.5 13.4315 0.5 30C0.5 46.5685 13.9315 60 30.5 60Z" fill="#FFCA28"/>
<path d="M42.4323 46.1925C41.9523 46.1925 41.4723 46.0088 41.1048 45.645C35.4348 39.975 25.5573 39.975 19.8911 45.645C19.1598 46.3763 17.9711 46.3763 17.2398 45.645C16.5086 44.9138 16.5086 43.725 17.2398 42.9938C20.7836 39.4538 25.4898 37.5 30.4998 37.5C35.5098 37.5 40.2161 39.4538 43.7561 42.9938C44.4873 43.725 44.4873 44.9138 43.7561 45.645C43.3923 46.0125 42.9123 46.1925 42.4323 46.1925Z" fill="#6D4C41"/>
<path d="M19.25 26.25C21.3211 26.25 23 24.5711 23 22.5C23 20.4289 21.3211 18.75 19.25 18.75C17.1789 18.75 15.5 20.4289 15.5 22.5C15.5 24.5711 17.1789 26.25 19.25 26.25Z" fill="#6D4C41"/>
<path d="M41.75 26.25C43.8211 26.25 45.5 24.5711 45.5 22.5C45.5 20.4289 43.8211 18.75 41.75 18.75C39.6789 18.75 38 20.4289 38 22.5C38 24.5711 39.6789 26.25 41.75 26.25Z" fill="#6D4C41"/>
</g>
<defs>
<clipPath id="clip0_2821_29315">
<rect width="60" height="60" fill="white" transform="translate(0.5)"/>
</clipPath>
</defs>
</svg>
