<svg width="20" height="20" viewBox="0 0 20 20" fill="none" xmlns="http://www.w3.org/2000/svg">
<path d="M17.5 17.5L13.7616 13.755L17.5 17.5ZM15.8333 8.74996C15.8333 10.6286 15.087 12.4303 13.7586 13.7586C12.4303 15.087 10.6286 15.8333 8.74996 15.8333C6.87134 15.8333 5.06967 15.087 3.74129 13.7586C2.4129 12.4303 1.66663 10.6286 1.66663 8.74996C1.66663 6.87134 2.4129 5.06967 3.74129 3.74129C5.06967 2.4129 6.87134 1.66663 8.74996 1.66663C10.6286 1.66663 12.4303 2.4129 13.7586 3.74129C15.087 5.06967 15.8333 6.87134 15.8333 8.74996V8.74996Z" stroke="#210C0F" stroke-width="2" stroke-linecap="round"/>
</svg>
